…
``` r
select(nyc_transit, line, station_name, station_latitude, station_longitude, route1, route2, route3, route4, route5, route6, route7, route8, route9, route10, route11, entry, vending, entrance_type, ada)
```

    ## # A tibble: 1,868 x 19
    ##    line  station_name station_latitude station_longitu… route1 route2
    ##    <chr> <chr>                   <dbl>            <dbl> <chr>  <chr> 
    ##  1 4 Av… 25th St                  40.7            -74.0 R      <NA>  
    ##  2 4 Av… 25th St                  40.7            -74.0 R      <NA>  
    ##  3 4 Av… 36th St                  40.7            -74.0 N      R     
    ##  4 4 Av… 36th St                  40.7            -74.0 N      R     
    ##  5 4 Av… 36th St                  40.7            -74.0 N      R     
    ##  6 4 Av… 45th St                  40.6            -74.0 R      <NA>  
    ##  7 4 Av… 45th St                  40.6            -74.0 R      <NA>  
    ##  8 4 Av… 45th St                  40.6            -74.0 R      <NA>  
    ##  9 4 Av… 45th St                  40.6            -74.0 R      <NA>  
    ## 10 4 Av… 53rd St                  40.6            -74.0 R      <NA>  
    ## # ... with 1,858 more rows, and 13 more variables: route3 <chr>,
    ## #   route4 <chr>, route5 <chr>, route6 <chr>, route7 <chr>, route8 <int>,
    ## #   route9 <int>, route10 <int>, route11 <int>, entry <chr>,
    ## #   vending <chr>, entrance_type <chr>, ada <lgl>
…
# How many distinct stations are there?
name_line = distinct(nyc_transit, station_name, line)
nrow(name_line)
```

    ## [1] 465

``` r
# How many stations are ADA compliant?
ada_compliant = distinct(nyc_transit, station_name, line, ada)
filter(ada_compliant, ada == "TRUE")
```

    ## # A tibble: 84 x 3
    ##    line            station_name                   ada  
    ##    <chr>           <chr>                          <lgl>
    ##  1 4 Avenue        Atlantic Av-Barclays Ctr       TRUE 
    ##  2 4 Avenue        DeKalb Av                      TRUE 
    ##  3 4 Avenue        Pacific St                     TRUE 
    ##  4 42nd St Shuttle Grand Central                  TRUE 
    ##  5 6 Avenue        34th St                        TRUE 
    ##  6 6 Avenue        47-50th Sts Rockefeller Center TRUE 
    ##  7 6 Avenue        Church Av                      TRUE 
    ##  8 63rd Street     21st St                        TRUE 
    ##  9 63rd Street     Lexington Av                   TRUE 
    ## 10 63rd Street     Roosevelt Island               TRUE 
    ## # ... with 74 more rows
…
### Problem 2:

``` r
# read the Mr. Trash Wheel sheet
library(readxl)
trash_wheel = read_excel("./data_files/HealthyHarborWaterWheelTotals2018-7-28.xlsx", sheet = 1, range = "A2:N258")

# Variable names used in the Mr. Trash Wheel Sheet are reasonable

# Omit rows that do not include dumpster-specific data
na.omit(trash_wheel, cols  = "Dumpster")
```

    ## # A tibble: 216 x 14
    ##    Dumpster Month  Year Date                `Weight (tons)`
    ##       <dbl> <chr> <dbl> <dttm>                        <dbl>
    ##  1        1 May    2014 2014-05-16 00:00:00            4.31
    ##  2        2 May    2014 2014-05-16 00:00:00            2.74
    ##  3        3 May    2014 2014-05-16 00:00:00            3.45
    ##  4        4 May    2014 2014-05-17 00:00:00            3.1 
    ##  5        5 May    2014 2014-05-17 00:00:00            4.06
    ##  6        6 May    2014 2014-05-20 00:00:00            2.71
    ##  7        7 May    2014 2014-05-21 00:00:00            1.91
    ##  8        8 May    2014 2014-05-28 00:00:00            3.7 
    ##  9        9 June   2014 2014-06-05 00:00:00            2.52
    ## 10       10 June   2014 2014-06-11 00:00:00            3.76
    ## # ... with 206 more rows, and 9 more variables: `Volume (cubic
    ## #   yards)` <dbl>, `Plastic Bottles` <dbl>, Polystyrene <dbl>, `Cigarette
    ## #   Butts` <dbl>, `Glass Bottles` <dbl>, `Grocery Bags` <dbl>, `Chip
    ## #   Bags` <dbl>, `Sports Balls` <dbl>, `Homes Powered*` <dbl>
…
totalprecip <- merge(precip2016, precip2017, all.x = TRUE, all.y = TRUE)
```

The number of observations in both resulting datasets was 12 in each and (24 in total). The key variables included year, precipitation (in inches), and the month that the precipation occurred. The total precipation in 2017 was 32.93. The median number of sports balls in a dumpster in 2016 was 15.5.

``` r
library(p8105.datasets)
data("brfss_smart2010")

# Exclude variables for class, topic, question, sample size, and everything from lower confidence limit to GeoLocation / Format the Data to use appropriate variable names
library(dplyr)
select(brfss_smart2010, Year = Year, State = Locationabbr, County = Locationdesc, Response = Response, Health_Score = Data_value)
```

    ## # A tibble: 134,203 x 5
    ##     Year State County                Response              Health_Score
    ##    <int> <chr> <chr>                 <chr>                        <dbl>
    ##  1  2010 AL    AL - Jefferson County Excellent                     18.9
    ##  2  2010 AL    AL - Jefferson County Very good                     30  
    ##  3  2010 AL    AL - Jefferson County Good                          33.1
    ##  4  2010 AL    AL - Jefferson County Fair                          12.5
    ##  5  2010 AL    AL - Jefferson County Poor                           5.5
    ##  6  2010 AL    AL - Jefferson County Good or Better Health         82  
    ##  7  2010 AL    AL - Jefferson County Fair or Poor Health           18  
    ##  8  2010 AL    AL - Jefferson County Yes                           79.3
    ##  9  2010 AL    AL - Jefferson County No                            20.7
    ## 10  2010 AL    AL - Jefferson County Yes                           74.9
    ## # ... with 134,193 more rows
